R beginners learning tips
…
the above tables are showing the importation of data from your
directory into R, using csv extension.

read_xlsx("e:/MY STAFS/rlaguage//BUDGET DAUDI HEALTH CENTRE 2022.xlsx")

## New names:
## * `` -> `...10`

## # A tibble: 32 x 10
##    TARGET   ACTIV~1 GSF C~2 Unit ~3 Quant~4 frequ~5 unit ~6  TOTAL Sourc~7 ...10
##    <chr>    <chr>   <chr>   <chr>     <dbl>   <dbl>   <dbl>  <dbl> <chr>   <dbl>
##  1 Shortag~ To sup~ Medica~ Kits          6       5   52500 1.58e6 USER F~    NA
##  2 <NA>     <NA>    Drugs ~ Kits          6       5  175000 5.25e6 <NA>       NA
##  3 <NA>     <NA>    Hospit~ Kits          6       5   35000 1.05e6 <NA>       NA
##  4 <NA>     <NA>    PPMof ~ Kits          6       5   50000 5.25e5 <NA>       NA
##  5 <NA>     <NA>    Dental~ Kits          6       5   35000 1.05e6 <NA>       NA
##  6 <NA>     <NA>    Labora~ Kits          6       5   35000 1.05e6 <NA>       NA
##  7 <NA>     <NA>    <NA>    <NA>         NA      NA      NA 1.05e7 <NA>       NA
##  8 Organiz~ To pro~ Water ~ bills        64      12    2500 1.92e6 USER F~    NA
##  9 <NA>     <NA>    Electr~ bills      1200       6     400 2.88e6 <NA>       NA
## 10 <NA>     <NA>    Per di~ person        5       5   80000 2   e6 <NA>       NA
## # ... with 22 more rows, and abbreviated variable names 1: ACTIVITY,
## #   2: `GSF CODE`, 3: `Unit of measure`, 4: Quantity, 5: frequencer,
## #   6: `unit price`, 7: `Source of Fund`
…
Finally a graph above demonstrate the world population by
continent, the most to miner populated continent on Earth. Asia is
leading the chart followed by Africa.

ASIA

asia = cont %>% filter(continent == "Asia")

asia

## # A tibble: 50 x 3
##    country     continent population
##    <chr>       <chr>          <dbl>
##  1 Afghanistan Asia        41128771
##  2 Armenia     Asia         2780469
##  3 Azerbaijan  Asia        10358074
##  4 Bahrain     Asia         1472233
##  5 Bangladesh  Asia       171186372
##  6 Bhutan      Asia          782455
##  7 Brunei      Asia          449002
##  8 Cambodia    Asia        16767842
##  9 China       Asia      1425887337
## 10 Georgia     Asia         3744385
## # ... with 40 more rows
…
The second tp fourth graph does allow the readers eyes
to relax when reading the counties names, therefor we have to flip our
graph so that the names of the countries can be well viwed, we use the
function Coord_flip() of the package tidyverse.

AFRICA

africa = bind_rows(con, con1, con2, con3, con4, con5) %>% 
  filter(continent == "Africa")

africa

## # A tibble: 57 x 3
##    country                  continent population
##    <chr>                    <chr>          <dbl>
##  1 Algeria                  Africa      44903225
##  2 Angola                   Africa      35588987
##  3 Benin                    Africa      13352864
##  4 Botswana                 Africa       2630296
##  5 Burkina Faso             Africa      22673762
##  6 Burundi                  Africa      12889576
##  7 Cameroon                 Africa      27914536
##  8 Cape Verde               Africa        593149
##  9 Central African Republic Africa       5579144
## 10 Chad                     Africa      17723315
## # ... with 47 more rows
…
The second tp fourth graph does allow the readers eyes
to relax when reading the counties names, therefor we have to flip our
graph so that the names of the countries can be well viwed, we use the
function Coord_flip() of the package tidyverse.

NORTH AMERICA

notame = bind_rows(con, con1, con2, con3, con4, con5) %>% 
  filter(continent == "North America")

notame

## # A tibble: 40 x 3
##    country                continent     population
##    <chr>                  <chr>              <dbl>
##  1 Anguilla               North America      15857
##  2 Antigua and Barbuda    North America      93763
##  3 Aruba                  North America     106445
##  4 Bahamas                North America     409984
##  5 Barbados               North America     281635
##  6 Belize                 North America     405272
##  7 Bermuda                North America      64184
##  8 British Virgin Islands North America      31305
##  9 Canada                 North America   38454327
## 10 Cayman Islands         North America      68706
## # ... with 30 more rows
…
The second tp fourth graph does allow the readers eyes
to relax when reading the counties names, therefor we have to flip our
graph so that the names of the countries can be well viwed, we use the
function Coord_flip() of the package tidyverse.

EUROPE

europe = cont %>% filter(continent == "Europe")

europe

## # A tibble: 50 x 3
##    country                continent population
##    <chr>                  <chr>          <dbl>
##  1 Albania                Europe       2842321
##  2 Andorra                Europe         79824
##  3 Austria                Europe       8939617
##  4 Belarus                Europe       9534954
##  5 Belgium                Europe      11655930
##  6 Bosnia and Herzegovina Europe       3233526
##  7 Bulgaria               Europe       6781953
##  8 Croatia                Europe       4030358
##  9 Cyprus                 Europe       1251488
## 10 Czech Republic         Europe      10493986
## # ... with 40 more rows
…
The second tp fourth graph does allow the readers eyes
to relax when reading the counties names, therefor we have to flip our
graph so that the names of the countries can be well viwed, we use the
function Coord_flip() of the package tidyverse.

OCEANIA.

ocean = cont %>% filter(continent == "Oceania")

ocean

## # A tibble: 23 x 3
##    country          continent population
##    <chr>            <chr>          <dbl>
##  1 American Samoa   Oceania        44273
##  2 Australia        Oceania     26177413
##  3 Cook Islands     Oceania        17011
##  4 Fiji             Oceania       929766
##  5 French Polynesia Oceania       306279
##  6 Guam             Oceania       171774
##  7 Kiribati         Oceania       131232
##  8 Marshall Islands Oceania        41569
##  9 Micronesia       Oceania       114164
## 10 Nauru            Oceania        12668
## # ... with 13 more rows
…
